1 10 20
100 200 125
201 210 89
900 1000 174
50 100 119
200 250 128
350 100 144
144 169 117
120 501 144
121 502 144
122 503 144
123 504 144
124 505 144
125 506 144
126 507 144
127 508 144
128 509 144
129 510 144
130 511 144
131 512 144
132 513 144
133 514 144
134 515 144
135 516 144
500 650 145
501 651 145
502 652 145
503 653 145
504 654 145
505 655 145
506 656 145
507 657 145
508 658 145
509 659 145
510 660 145
511 661 145
512 662 145
513 663 145
514 664 145
515 665 145
516 666 145
517 667 145
518 668 145
519 669 145
30403 30621 241
30404 30622 241
30405 30623 241
30406 30624 241
30407 30625 241
30408 30626 241
30409 30627 241
30410 30628 241
30411 30629 241
30412 30630 241
30413 30631 241
35 249 128
36 250 128
37 251 128
38 252 128
39 253 128
40 254 128
41 255 128
42 256 128
43 257 128
44 258 128
45 259 128
46 260 128
47 261 128
48 262 128
49 263 128
50 264 128
51 265 128
52 266 128
53 267 128
54 268 128
877 269 179
878 2001 182
879 2002 182
880 2003 182
881 2004 182
882 2005 182
883 2006 182
884 2007 182
885 2008 182
886 2009 182
887 2010 182
888 2011 182
889 2012 182
890 2013 182
891 2014 182
892 2015 182
893 2016 182
894 2017 182
895 2018 182
896 2019 182
897 2020 182
898 2021 182
899 2022 182
900 2023 182
901 2024 182
902 2025 182
903 2026 182
904 2027 182
905 2028 182
906 2029 182
907 2030 182
908 2031 182
909 2032 182
910 2033 182
911 2034 182
912 2035 182
913 2036 182
914 2037 182
915 2038 182
916 2039 182
100000 25 351
