1 10 20
100 200 125
201 210 89
1 999999 525
30000 20000 308
5789 5789 55
100 400 144
600 340 142
100 100 26
603 403 142
10000 19993 279
56123 90847 351
2948 5828 238
193 58398 340
2848 84842 351
58498 58459 198
136 482 144
687 3845 238
2485 32848 308
920 68 179
28 484 144
5039 3894 238
483 2299 183
229 2929 217
1295 2939 217
1 4 8
5 90 116
12985 90999 351
1 999999 525
52845 33848 324
284 3838 238
3839 7473 238
294 1749 182
87 98 119
2345 9889 260
98238 28482 351
299 5738 238
129 129 122
848 2627 209
483 399 134
964 2282 183
1222 1222 40
599 4999 238
1 800 171
3490 4902 238
340 940 179
2034 49033 324
653 29590 308
3095 34960 311
3930 4949 215
2020 44556 324
45 90000 351
87 76 111
3556 7948 238
234 6532 262
2368 49599 324
44 79492 351
234 6594 262
493 6939 262
3958 7940 238
345 785 171
8765 345 262
2345 98765 351
34 7934 262
34 59863 340
5389 578904 470
23 349889 443
982 3728 238
34984 2344 311
14 459 144
9034 23498 279
8934 49 262
4598 28 238
93992 8228 351
122 3334 217
55 92020 351
875 7272 262
4838 483 238
49828 3849 324
394829 3494 443
3498 3498 119
9658 348 262
134568 29898 354
20499 34895 311
3489 354985 443
69499 2839 340
1 10 20
1 1 1
10 1 20
4939 548 238
395023 203909 443
59 2949 217
20490 23400 269
230 29388 308
2390 58475 340
39849 20900 311
58 19399 279
239 5858 238
87435 328049 443
3498 9863 260
9724 589 262
8956 3287 238
90 45378 324
387 39 144
32478 3498 308
36 4589 238
2378 59 183
3478 5689 238
1256 569 182
