...............
----------------------------------------------------------------------
Ran 15 tests in 0.259s

OK
Name             Stmts   Miss Branch BrPart  Cover   Missing
------------------------------------------------------------
Collatz.py          33      2     14      1    94%   51-52, 50->51
TestCollatz.py      66      0      0      0   100%
------------------------------------------------------------
TOTAL               99      2     14      1    97%
