..................
----------------------------------------------------------------------
Ran 18 tests in 5.533s

OK
Name             Stmts   Miss Branch BrPart  Cover   Missing
------------------------------------------------------------
Collatz.py          32      1     10      1    95%   48, 47->48
TestCollatz.py      78      0      0      0   100%
------------------------------------------------------------
TOTAL              110      1     10      1    98%
